﻿{
    "DocumentRoot": ".",
    "Port": "8080",
    "Plugins" : [
        {
            "Path" : "stat",
            "Class" : "DNWS.StatPlugin",
            "Preprocessing" : "true",
            "Postprocessing" : "false" ,
            "Singpleton" : "false"
        },
        {
            "Path" : "client-info",
            "Class" : "DNWS.ClientInfoPlugin",
            "Preprocessing" : "false",
            "Postprocessing" :"false",
            "Singpleton" : "false"
        },
        {
            "Path" : "ox",
            "Class" : "DNWS.OXPlugin",
            "Preprocessing" : "false",
            "Postprocessing" :"false" 
        },
        {
            "Path" : "twitter",
            "Class" : "DNWS.TwitterPlugin",
            "Preprocessing" : "false",
            "Postprocessing" :"false" 
        }
    ]
}